%YAML 1.1
%TAG !u! tag:unity3d.com,2011:
--- !u!1 &7882820195712338625
GameObject:
  m_ObjectHideFlags: 0
  m_CorrespondingSourceObject: {fileID: 0}
  m_PrefabInstance: {fileID: 0}
  m_PrefabAsset: {fileID: 0}
  serializedVersion: 6
  m_Component:
  - component: {fileID: 5540082069086661249}
  m_Layer: 0
  m_Name: Turet01
  m_TagString: Untagged
  m_Icon: {fileID: 0}
  m_NavMeshLayer: 0
  m_StaticEditorFlags: 0
  m_IsActive: 1
--- !u!4 &5540082069086661249
Transform:
  m_ObjectHideFlags: 0
  m_CorrespondingSourceObject: {fileID: 0}
  m_PrefabInstance: {fileID: 0}
  m_PrefabAsset: {fileID: 0}
  m_GameObject: {fileID: 7882820195712338625}
  m_LocalRotation: {x: 0, y: 0, z: 0, w: 1}
  m_LocalPosition: {x: -0.4388441, y: -0.077616215, z: -0.26471716}
  m_LocalScale: {x: 1, y: 1, z: 1}
  m_ConstrainProportionsScale: 0
  m_Children:
  - {fileID: 2738870379487704376}
  m_Father: {fileID: 0}
  m_RootOrder: 0
  m_LocalEulerAnglesHint: {x: 0, y: 0, z: 0}
--- !u!1001 &2738870379487571896
PrefabInstance:
  m_ObjectHideFlags: 0
  serializedVersion: 2
  m_Modification:
    m_TransformParent: {fileID: 5540082069086661249}
    m_Modifications:
    - target: {fileID: 100000, guid: d4bf64dae66a6384e8abc058dac59762, type: 3}
      propertyPath: m_Name
      value: Weapon
      objectReference: {fileID: 0}
    - target: {fileID: 400000, guid: d4bf64dae66a6384e8abc058dac59762, type: 3}
      propertyPath: m_RootOrder
      value: 0
      objectReference: {fileID: 0}
    - target: {fileID: 400000, guid: d4bf64dae66a6384e8abc058dac59762, type: 3}
      propertyPath: m_LocalPosition.x
      value: 0.4388441
      objectReference: {fileID: 0}
    - target: {fileID: 400000, guid: d4bf64dae66a6384e8abc058dac59762, type: 3}
      propertyPath: m_LocalPosition.y
      value: 0.077616215
      objectReference: {fileID: 0}
    - target: {fileID: 400000, guid: d4bf64dae66a6384e8abc058dac59762, type: 3}
      propertyPath: m_LocalPosition.z
      value: 0.26471716
      objectReference: {fileID: 0}
    - target: {fileID: 400000, guid: d4bf64dae66a6384e8abc058dac59762, type: 3}
      propertyPath: m_LocalRotation.w
      value: 1
      objectReference: {fileID: 0}
    - target: {fileID: 400000, guid: d4bf64dae66a6384e8abc058dac59762, type: 3}
      propertyPath: m_LocalRotation.x
      value: 0.00000008146034
      objectReference: {fileID: 0}
    - target: {fileID: 400000, guid: d4bf64dae66a6384e8abc058dac59762, type: 3}
      propertyPath: m_LocalRotation.y
      value: 0.0000003019916
      objectReference: {fileID: 0}
    - target: {fileID: 400000, guid: d4bf64dae66a6384e8abc058dac59762, type: 3}
      propertyPath: m_LocalRotation.z
      value: -2.4600339e-14
      objectReference: {fileID: 0}
    - target: {fileID: 400000, guid: d4bf64dae66a6384e8abc058dac59762, type: 3}
      propertyPath: m_LocalEulerAnglesHint.x
      value: 0
      objectReference: {fileID: 0}
    - target: {fileID: 400000, guid: d4bf64dae66a6384e8abc058dac59762, type: 3}
      propertyPath: m_LocalEulerAnglesHint.y
      value: 0
      objectReference: {fileID: 0}
    - target: {fileID: 400000, guid: d4bf64dae66a6384e8abc058dac59762, type: 3}
      propertyPath: m_LocalEulerAnglesHint.z
      value: 0
      objectReference: {fileID: 0}
    m_RemovedComponents: []
  m_SourcePrefab: {fileID: 100100000, guid: d4bf64dae66a6384e8abc058dac59762, type: 3}
--- !u!4 &2738870379487704376 stripped
Transform:
  m_CorrespondingSourceObject: {fileID: 400000, guid: d4bf64dae66a6384e8abc058dac59762, type: 3}
  m_PrefabInstance: {fileID: 2738870379487571896}
  m_PrefabAsset: {fileID: 0}
