%YAML 1.1
%TAG !u! tag:unity3d.com,2011:
--- !u!1045 &1
EditorBuildSettings:
  m_ObjectHideFlags: 0
  serializedVersion: 2
  m_Scenes:
  - enabled: 1
    path: Assets/Scenes/MainMenu.unity
    guid: e44c921e256f1064486f7730c90970b6
  - enabled: 1
    path: Assets/Scenes/Level1.unity
    guid: 19333f7b4eb3259429d8674904f1a3b5
  m_configObjects: {}
